33604,ACTION              ,0,*                                                           ,*         ,0
33604,ACTION              ,1,Down                                                        ,DOwn      ,18
33604,ACTION              ,2,Ready                                                       ,REady     ,2
33604,ACTION              ,3,Standby                                                     ,Standby   ,18
33604,ACTION              ,4,Delay                                                       ,DElay     ,2
33604,ACTION              ,5,Assign                                                      ,ASsign    ,1
33604,ACTION              ,6,Arrive                                                      ,ARrive    ,1
33604,ACTION              ,7,First Bucket                                                ,FIrst Bkt ,1
33604,ACTION              ,8,Logon                                                       ,LOgon     ,2
33604,ACTION              ,9,Help                                                        ,HElp      ,18
33604,ACTION              ,10,Fuel                                                        ,FUEl      ,18
33604,ACTION              ,11,Late                                                        ,          ,0
33604,ACTION              ,12,Full                                                        ,FUll      ,1
33604,ACTION              ,13,BEACON                                                      ,BEACON    ,1
33604,ACTION              ,14,Alarm                                                       ,ALarm     ,2
33604,ACTION              ,15,Alarm Data                                                  ,          ,0
33604,ACTION              ,16,Start Dump                                                  ,SDump     ,0
33604,ACTION              ,17,End Digest                                                  ,EDigest   ,0
33604,ACTION              ,18,Manasn                                                      ,          ,0
33604,ACTION              ,19,Reject                                                      ,          ,0
33604,ACTION              ,20,Message                                                     ,MEssage   ,32
33604,ACTION              ,21,Broadcast                                                   ,BRoadcast ,32
33604,ACTION              ,22,Panel Command                                               ,PAnel     ,32
33604,ACTION              ,23,Recall                                                      ,RECall    ,1
33604,ACTION              ,24,Coldstart                                                   ,          ,0
33604,ACTION              ,25,Except                                                      ,          ,0
33604,ACTION              ,26,Other                                                       ,          ,0
33604,ACTION              ,27,IR Beacon                                                   ,IR        ,50
33604,ACTION              ,28,GPS Arrive                                                  ,          ,144
33604,ACTION              ,29,GPS Depart                                                  ,          ,16
33604,ACTION              ,30,HP Panfull                                                  ,HPfull    ,0
33604,ACTION              ,31,Eqmt Request                                                ,EQreq     ,0
33604,ACTION              ,32,Prestart                                                    ,PRest     ,0
33604,ACTION              ,33,Drill Request                                               ,DRill     ,0
33604,ACTION              ,34,Interface                                                   ,INtf      ,0
33604,ACTION              ,35,Menu Request                                                ,MENU      ,0
33604,ACTION              ,36,Start Hole                                                  ,STH       ,0
33604,ACTION              ,37,End Hole                                                    ,EH        ,0
33604,BOOLEAN             ,0,No                                                          ,No        ,0
33604,BOOLEAN             ,1,Yes                                                         ,Yes       ,1
33604,BREAK               ,0,Most Loaders DO Break                                       ,DO        ,1
33604,BREAK               ,1,Most Loaders Break                                          ,DONT      ,1
33604,BREAK               ,2,Lunch Break                                                 ,LUnch     ,1
33604,BREAK               ,3,Tiedown at Locations                                        ,LOcation  ,2
33604,BREAK               ,4,Tiedown at Excav/Loaders                                    ,EXCav     ,2
33604,BREAK               ,5,Tiedown on Holiday                                          ,HOliday   ,2
33604,BREAK               ,6,Tiedown at Shovel/Location                                  ,SHLOC     ,2
33604,CREW                ,0,None                                                        ,0,0
33604,CREW                ,1,A                                                           ,A         ,3
33604,CREW                ,2,B                                                           ,B         ,3
33604,CREW                ,3,C                                                           ,C         ,3
33604,CREW                ,4,G                                                           ,G         ,3
33604,DAY                 ,0,Sunday                                                      ,SUN       ,1
33604,DAY                 ,1,Monday                                                      ,MON       ,1
33604,DAY                 ,2,Tuesday                                                     ,TUE       ,1
33604,DAY                 ,3,Wednesday                                                   ,WED       ,1
33604,DAY                 ,4,Thursday                                                    ,THU       ,1
33604,DAY                 ,5,Friday                                                      ,FRI       ,1
33604,DAY                 ,6,Saturday                                                    ,SAT       ,1
33604,DSTR                ,0,*                                                           ,*         ,0
33604,DSTR                ,1,Uniform                                                     ,UNiform   ,1
33604,DSTR                ,2,Normal                                                      ,NOrmal    ,1
33604,DSTR                ,3,Log Normal                                                  ,LOgnormal ,1
33604,EQWINDOW            ,0,*                                                           ,*         ,0
33604,FUEL                ,0,Diesel                                                      ,DIEsel    ,1
33604,FUEL                ,1,Expected Diesel                                             ,EDIEsel   ,1
33604,GPSTYPE             ,0,Disabled                                                    ,DI        ,1
33604,GPSTYPE             ,1,End Point                                                   ,EP        ,1
33604,GPSTYPE             ,2,Way Point                                                   ,WP        ,1
33604,GPSTYPE             ,3,End Point D                                                 ,ED        ,1
33604,GPSTYPE             ,4,Way Point D                                                 ,WD        ,1
33604,GPSTYPE             ,5,Load Unload                                                 ,LU        ,1
33604,GPSTYPE             ,6,Load Unload D                                               ,LD        ,1
33604,GRADE               ,0,Alumina                                                     ,Alumina   ,1
33604,GRADE               ,1,Silica                                                      ,Silica    ,1
33604,LCSORT              ,0,*                                                           ,*         ,0
33604,LCSORT              ,1,Excav/Loader                                                ,EXcav     ,1
33604,LCSORT              ,2,Location                                                    ,LOCation  ,1
33604,LCSORT              ,3,Load Type                                                   ,LOAd      ,1
33604,LCSORT              ,4,Block                                                       ,BLock     ,1
33604,LCSORT              ,5,Truck                                                       ,TRuck     ,1
33604,LCSORT              ,6,Time                                                        ,TIme      ,1
33604,LINEUP              ,0,Current Assignment                                          ,Operator  ,1
33604,LINEUP              ,1,Permanent Assignment                                        ,Perm      ,1
33604,LINEUP              ,2,Lineup Assignment                                           ,Lineup    ,1
33604,LINEUP              ,3,Rider Assignment                                            ,Rider     ,1
33604,LOAD                ,0,Empty                                                       ,EMpty     ,1
33604,LOAD                ,1,Main Grade                                                  ,Main      ,530
33604,LOAD                ,2,Bottom Grade                                                ,Bottom    ,530
33604,LOAD                ,3,Topsoil                                                     ,Topsoil   ,532
33604,LOAD                ,4,Laterite                                                    ,Laterite  ,532
33604,LOAD                ,5,Non-Ore                                                     ,Non-Ore   ,532
33604,LOAD                ,6,Boulder                                                     ,Boulder   ,530
33604,LOAD                ,7,Rehandle Ore                                                ,Rehandle  ,536
33604,LOADGRP             ,0,Empty                                                       ,Empty     ,0
33604,LOADGRP             ,1,Bauxite                                                     ,Bauxite   ,513
33604,LOADGRP             ,2,Waste                                                       ,Waste     ,513
33604,LOADGRP             ,3,Rehandle                                                    ,Rehandle  ,513
33604,LOADTYPE            ,0,Regular                                                     ,REG       ,1
33604,LOADTYPE            ,1,Trammed                                                     ,TRA       ,1
33604,LPEXCAV             ,0,Unknown                                                     ,*         ,0
33604,LPEXCAV             ,1,Cat 988F                                                    ,988F      ,1
33604,LPEXCAV             ,2,Komatsu WA700                                               ,WA700     ,1
33604,LPEXCAV             ,3,Poclain 300CK                                               ,300CK     ,1
33604,LPEXCAV             ,4,Tata-Hitachi EX1200                                         ,EX1200    ,1
33604,LPTRUCK             ,0,Unknown                                                     ,*         ,0
33604,LPTRUCK             ,1,Beml 210M                                                   ,B210M     ,1
33604,LPTRUCK             ,2,BH 50M                                                      ,BH50M     ,1
33604,MONTH               ,0,*                                                           ,*         ,0
33604,MONTH               ,1,JAN                                                         ,JANuary   ,1
33604,MONTH               ,2,FEB                                                         ,FEBruary  ,1
33604,MONTH               ,3,MAR                                                         ,MARch     ,1
33604,MONTH               ,4,APR                                                         ,APRil     ,1
33604,MONTH               ,5,MAY                                                         ,MAY       ,1
33604,MONTH               ,6,JUN                                                         ,JUNe      ,1
33604,MONTH               ,7,JUL                                                         ,JULy      ,1
33604,MONTH               ,8,AUG                                                         ,AUGust    ,1
33604,MONTH               ,9,SEP                                                         ,SEPtember ,1
33604,MONTH               ,10,OCT                                                         ,OCTober   ,1
33604,MONTH               ,11,NOV                                                         ,NOVember  ,1
33604,MONTH               ,12,DEC                                                         ,DECember  ,1
33604,MPRIOR              ,0,Ore Equals Waste                                            ,EQual     ,1
33604,MPRIOR              ,1,Ore Above Waste                                             ,ORe       ,1
33604,MPRIOR              ,2,Waste Above Ore                                             ,WAste     ,1
33604,ONEWAY              ,0,Both Ways                                                   ,BOth      ,1
33604,ONEWAY              ,1,One Way                                                     ,ONe       ,1
33604,ONEWAY              ,2,Open                                                        ,OPen      ,1
33604,ORE                 ,0,Main Grade                                                  ,Main      ,1
33604,ORE                 ,1,Bottom Grade                                                ,Bottom    ,1
33604,ORE                 ,2,Boulder                                                     ,Boulder   ,1
33604,ORE                 ,3,Rehandle Ore                                                ,Rehandle  ,0
33604,PRIOR               ,0,Low                                                         ,LOw       ,1
33604,UNIT                ,4,Crusher                                                     ,CRusher   ,8200
33604,UNIT                ,5,Stockpile                                                   ,STockpile ,57356
33604,UNIT                ,6,Blast                                                       ,Blast     ,40964
33604,UNIT                ,7,Workshop                                                    ,WOrkshop  ,8208
33604,UNIT                ,8,Shiftchange                                                 ,SHIFtchan ,8208
33604,UNIT                ,9,Call Point                                                  ,CAll Poin ,16
33604,UNIT                ,10,Pit                                                         ,PIt       ,16
33604,UNIT                ,11,Region                                                      ,REgion    ,16
33604,UNIT                ,12,Drill                                                       ,DRill     ,672
33604,UNIT                ,13,Dozer                                                       ,DOzer     ,544
33604,UNIT                ,14,Grader                                                      ,GRAder    ,544
33604,UNIT                ,15,Wheel Dozer                                                 ,WDozer    ,544
33604,UNIT                ,16,Aux Crusher                                                 ,ACrush    ,96
33604,UNIT                ,17,Foreman                                                     ,Foreman   ,544
33604,UNIT                ,18,Water Truck                                                 ,WTruck    ,544
33604,UNIT                ,19,Utility Vehicle                                             ,Util      ,544
33604,UNIT                ,20,Man Bus                                                     ,Bus       ,288
33604,UNIT                ,21,ANFO                                                        ,ANFO      ,544
33604,UNIT                ,22,Crusher Bay                                                 ,CrushBay  ,32
33604,UNIT                ,23,Conveyor                                                    ,Conveyor  ,32
33604,UNIT                ,24,Rock Breaker                                                ,Breaker   ,32
33604,UNIT                ,25,Relievers                                                   ,RElievers ,32
33604,WASTE               ,0,Topsoil                                                     ,Topsoil   ,1
33604,WASTE               ,1,Laterite                                                    ,Laterite  ,1
33604,WASTE               ,2,Non-Ore                                                     ,Non-Ore   ,0
33604,WINDOW              ,0,*                                                           ,*         ,0
33604,WSTAT               ,0,Punch In                                                    ,Punch In  ,1
33604,WSTAT               ,1,No Punch                                                    ,No Punch  ,1
33604,WSTAT               ,2,Sick                                                        ,SICk      ,0
33604,WSTAT               ,3,Vacation                                                    ,Vacation  ,0
33604,WSTAT               ,4,Other                                                       ,OTHer     ,0
33604,CAT_tbl             ,0,Breakdown                                                   ,Breakdown ,3
33604,CAT_tbl             ,1,Breakdown                                                   ,Breakdown ,3
33604,CAT_tbl             ,2,Actual                                                      ,Actual    ,1
33604,CAT_tbl             ,3,Idle                                                        ,Idle      ,2
33604,CAT_tbl             ,4,Idle                                                        ,Idle      ,2
33604,CAT_tbl             ,5,Idle                                                        ,Idle      ,2
33604,LOAD_GRP_TYPE       ,0,                                                            ,          ,0
33604,LOAD_GRP_TYPE       ,1,                                                            ,          ,512
33604,LOAD_GRP_TYPE       ,2,                                                            ,          ,512
33604,LOAD_GRP_TYPE       ,3,                                                            ,          ,512
33604,LOAD_GRP_TYPE       ,4,                                                            ,          ,0
33604,LOAD_GRP_TYPE       ,5,                                                            ,          ,0
33604,LOAD_GRP_TYPE       ,6,Bauxite                                                     ,Bauxite   ,1
33604,LOAD_GRP_TYPE       ,7,Bauxite                                                     ,Bauxite   ,1
33604,LOAD_GRP_TYPE       ,8,Waste                                                       ,Waste     ,2
33604,LOAD_GRP_TYPE       ,9,Waste                                                       ,Waste     ,2
33604,LOAD_GRP_TYPE       ,10,Waste                                                       ,Waste     ,2
33604,LOAD_GRP_TYPE       ,11,Bauxite                                                     ,Bauxite   ,1
33604,LOAD_GRP_TYPE       ,12,Rehandle                                                    ,Rehandle  ,3
33604,TMCAT               ,0,*                                                           ,*         ,0
33604,TMCAT               ,1,Actual                                                      ,Actual    ,2
33604,TMCAT               ,2,Idle                                                        ,Idle      ,4
33604,TMCAT               ,3,Breakdown                                                   ,Breakdown ,1
33604,TMCAT               ,4,Tramming                                                    ,Tramming  ,2
33604,PRIOR               ,1,Normal                                                      ,NOrmal    ,1
33604,PRIOR               ,2,High                                                        ,HIgh      ,1
33604,QTYPE               ,0,Unqualified                                                 ,U         ,1
33604,QTYPE               ,1,Trainee                                                     ,T         ,1
33604,QTYPE               ,2,Qualified                                                   ,Q         ,1
33604,QTYPE               ,3,Experienced                                                 ,E         ,1
33604,QUALIF              ,0,Unknown                                                     ,          ,0
33604,QUALIF              ,1,Beml 210M                                                   ,B210M     ,5
33604,QUALIF              ,2,Cat 988F                                                    ,988F      ,2
33604,QUALIF              ,3,Komatsu WA700                                               ,WA700     ,2
33604,QUALIF              ,4,Poclain 300CK                                               ,300CK     ,2
33604,QUALIF              ,5,IR IDM30                                                    ,IDM30     ,4
33604,QUALIF              ,6,RECP                                                        ,RECP      ,4
33604,QUALIF              ,7,Beml RD605R2                                                ,RD605R2   ,4
33604,QUALIF              ,8,Komatsu GD611A-2                                            ,GD611A-2  ,4
33604,QUALIF              ,9,Aux Crusher                                                 ,ACrush    ,4
33604,QUALIF              ,10,Hindustar R35                                               ,R35       ,4
33604,QUALIF              ,11,HM R35BI                                                    ,R35BI     ,4
33604,QUALIF              ,12,Beml LW35                                                   ,LW35      ,4
33604,QUALIF              ,13,Cat 988B                                                    ,988B      ,4
33604,QUALIF              ,14,Komatsu D355                                                ,D355      ,4
33604,QUALIF              ,15,Beml BD355                                                  ,BD355     ,4
33604,QUALIF              ,16,Beml D475A-2                                                ,D475A-2   ,4
33604,QUALIF              ,17,Cat D10                                                     ,D10       ,4
33604,QUALIF              ,18,Supervisor                                                  ,SupVis    ,4
33604,QUALIF              ,19,L&T 90CK-3                                                  ,LT-90CK   ,4
33604,QUALIF              ,20,L&T 90P                                                     ,LT-90P    ,4
33604,QUALIF              ,21,Relievers 1                                                 ,RELV1     ,4
33604,QUALIF              ,22,Relievers 2                                                 ,RELV2     ,4
33604,QUALIF              ,23,Relievers 3                                                 ,RELV3     ,4
33604,QUALIF              ,24,Relievers 4                                                 ,RELV4     ,4
33604,QUALIF              ,25,BH 50M                                                      ,BH50M     ,5
33604,QUALIF              ,26,Tata-Hitachi EX1200                                         ,EX1200    ,2
33604,QUALIF              ,27,Komatsu D475A                                               ,D475A     ,4
33604,QUALIF              ,28,Komatsu D375A                                               ,D375A     ,4
33604,QUALIF              ,29,Ford F-700                                                  ,F700      ,4
33604,REASONTYPE          ,0,*                                                           ,*         ,0
33604,REASONTYPE          ,1,Down                                                        ,DOwn      ,1
33604,REASONTYPE          ,2,Ready                                                       ,REady     ,1
33604,REASONTYPE          ,3,Standby                                                     ,STandby   ,1
33604,REASONTYPE          ,4,Delay                                                       ,DElay     ,1
33604,SHIFT               ,0,All Shifts                                                  ,ALL       ,1
33604,SHIFT               ,1,A Shift                                                     ,A         ,2
33604,SHIFT               ,2,B Shift                                                     ,B         ,2
33604,SHIFT               ,3,C Shift                                                     ,C         ,2
33604,SHOP                ,0,*                                                           ,*         ,0
33604,SHOP                ,1,Maint Workshop                                              ,Maint     ,1
33604,SHOP                ,2,Fuel Workshop                                               ,Fuel      ,1
33604,SHOP                ,3,Tyre Workshop                                               ,Tyre      ,1
33604,SHOP                ,4,Other Workshop                                              ,Other     ,1
33604,SHOP                ,5,Water Fill                                                  ,Water     ,2
33604,STATUS              ,0,*                                                           ,*         ,0
33604,STATUS              ,1,Down                                                        ,DOwn      ,3
33604,STATUS              ,2,Ready                                                       ,REady     ,1
33604,STATUS              ,3,Standby                                                     ,STandby   ,3
33604,STATUS              ,4,Delay                                                       ,DElay     ,3
33604,STATUS              ,5,Shiftchange                                                 ,SHIFtchan ,1
33604,TIMECAT             ,0,*                                                           ,*         ,0
33604,TIMECAT             ,1,Actual                                                      ,Actual    ,2
33604,TIMECAT             ,2,Idle                                                        ,Idle      ,4
33604,TIMECAT             ,3,Breakdown                                                   ,Breakdown ,1
33604,TIMECAT             ,4,Tramming                                                    ,Tramming  ,2
33604,UNIT                ,0,*                                                           ,*         ,0
33604,UNIT                ,1,Truck                                                       ,Truck     ,513
33604,UNIT                ,2,Shovel                                                      ,SHovel    ,8706
33604,UNIT                ,3,Dump                                                        ,DUmp      ,24584
